Looking at the Traces from Bishnu
…
    df
  }) %>% 
    do.call(rbind, .) -> combined_mols
  
  combined_mols
}

df <- read_all_frames(list.files(fl, full.names = TRUE, pattern = ".dat"))

df

# A tibble: 27,215 × 6
   frame   don   acc  fret state   mol
   <dbl> <dbl> <dbl> <dbl> <dbl> <int>
 1     1 2279.  793. 0.258 0.325     1
 2     2 2142.  941. 0.305 0.325     1
 3     3 1375.  684. 0.332 0.325     1
 4     4 1481.  988. 0.400 0.431     1
 5     5 1451. 1206. 0.454 0.431     1
 6     6 1401. 1193. 0.460 0.431     1
 7     7 1473. 1249. 0.459 0.431     1
 8     8 1471. 1062. 0.419 0.431     1
 9     9 1333. 1161. 0.466 0.431     1
10    10 1430. 1083. 0.431 0.431     1
# … with 27,205 more rows
…
`summarise()` has grouped output by 'rna', 'id'. You can override using the `.groups` argument.

trans

# A tibble: 11,258 × 7
# Groups:   rna, id [1,316]
     rna    id state_no frames  time  from     to
   <dbl> <int>    <dbl>  <int> <dbl> <dbl>  <dbl>
 1     0     1        1    213  42.6 0.307 NA    
 2     0     2        1      1   0.2 0.353  0.187
 3     0     2        2      5   1   0.187  0.353
 4     0     2        3     10   2   0.353  0.187
 5     0     2        4     97  19.4 0.187  0.353
 6     0     2        5      5   1   0.353  0.187
 7     0     2        6     34   6.8 0.187  0.353
 8     0     2        7     12   2.4 0.353  0.187
 9     0     2        8      4   0.8 0.187  0.353
10     0     2        9     15   3   0.353  0.187
# … with 11,248 more rows
…
