Turning the data into formatted data frames.
…
read_fun <- function(file) {
  some_list <- pbapply::pblapply(seq_along(file), function(x) {
    df <- readr::read_table(file[x], 
                            col_types = readr::cols(), 
                            col_names = c("frame", "don", "acc", "fret", "state"))
    df$mol <- x
    df
  })
  
  do.call(rbind, some_list)
}
# read the first set of frames as test
read_fun(list.files(paths[1], ".dat", full.names = TRUE))

# A tibble: 14,876 × 6
   frame   don   acc  fret state   mol
   <dbl> <dbl> <dbl> <dbl> <dbl> <int>
 1     1 1067. 1013. 0.487 0.307     1
 2     2  996.  906. 0.476 0.307     1
 3     3 1469. 1197. 0.449 0.307     1
 4     4 1581. 1005. 0.389 0.307     1
 5     5 2183. 1250. 0.364 0.307     1
 6     6 2114. 1135. 0.349 0.307     1
 7     7 2110. 1163. 0.355 0.307     1
 8     8 1825.  995. 0.353 0.307     1
 9     9 1304.  720. 0.356 0.307     1
10    10 1357.  488. 0.265 0.307     1
# … with 14,866 more rows
…
`summarise()` has grouped output by 'rna', 'mol'. You can override using the `.groups` argument.

transitions

# A tibble: 11,258 × 7
# Groups:   rna, mol [1,316]
   rna     mol state_no frames  time  from     to
   <chr> <int>    <dbl>  <int> <dbl> <dbl>  <dbl>
 1 0         1        1    213  42.6 0.307 NA    
 2 0         2        1      1   0.2 0.353  0.187
 3 0         2        2      5   1   0.187  0.353
 4 0         2        3     10   2   0.353  0.187
 5 0         2        4     97  19.4 0.187  0.353
 6 0         2        5      5   1   0.353  0.187
 7 0         2        6     34   6.8 0.187  0.353
 8 0         2        7     12   2.4 0.353  0.187
 9 0         2        8      4   0.8 0.187  0.353
10 0         2        9     15   3   0.353  0.187
# … with 11,248 more rows
…
cut_df %>%
  filter(is.na(to))

# A tibble: 990 × 9
# Groups:   rna, mol [990]
   rna     mol state_no frames  time  from    to from_cut to_cut
   <chr> <int>    <dbl>  <int> <dbl> <dbl> <dbl>    <int>  <int>
 1 0         2       26     13   2.6 0.187    NA        1     NA
 2 0         5        1      5   1   0.184    NA        1     NA
 3 0         6        1     23   4.6 0.229    NA        1     NA
 4 0         8        1     11   2.2 0.279    NA        1     NA
 5 0         9        1     34   6.8 0.244    NA        1     NA
 6 0        10        1     19   3.8 0.337    NA        1     NA
 7 0        11        1     58  11.6 0.209    NA        1     NA
 8 0        12        1     41   8.2 0.267    NA        1     NA
 9 0        13        1     59  11.8 0.266    NA        1     NA
10 0        15        1     41   8.2 0.177    NA        1     NA
# … with 980 more rows
…
