SPR Modelling
…
Unstaged changes:
    Modified:   analysis/differential-fitting.Rmd
    Modified:   analysis/formatting_data.Rmd

Note that any generated files, e.g. HTML, png, CSS, etc., are not included in this status report because it is ok for generated content to have uncommitted changes.

There are no past versions. Publish this analysis with wflow_publish() to start tracking its development.

Modelling the decay of protein binding in SPR.

df <- readr::read_rds("~/Dropbox/BondLab/Data/SPR/spr.rds")
df

# A tibble: 178,932 × 3
    time RNA   Response
   <dbl> <chr>    <dbl>
 1   -80 RNA01   0.0443
 2   -80 RNA02  -0.0985
 3   -80 RNA03  -0.310 
 4   -80 RNA04  -0.290 
 5   -80 RNA05   0.248 
 6   -80 RNA06  -0.0608
 7   -80 RNA07  -0.139 
 8   -80 RNA08   0.0847
 9   -80 RNA09   0.0138
10   -80 RNA10   0.0232
# … with 178,922 more rows
…
